TrabalhoCircuitos/simulation/qsim/TrabalhoCircuitos.msim.vcd
$comment
	File created using the following command:
		vcd file TrabalhoCircuitos.msim.vcd -direction
$end
$date
	Thu May 18 18:21:49 2017
$end
$version
	ModelSim Version 10.1d
$end
$timescale
	1ps
$end
$scope module TrabalhoCircuitos_vlg_vec_tst $end
$var reg 1 ! A $end
$var reg 1 " B $end
$var reg 1 # C $end
$var reg 1 $ D $end
$var wire 1 % SAIDA $end
$var wire 1 & sampler $end
$scope module i1 $end
$var wire 1 ' gnd $end
$var wire 1 ( vcc $end
$var wire 1 ) unknown $end
$var tri1 1 * devclrn $end
$var tri1 1 + devpor $end
$var tri1 1 , devoe $end
$var wire 1 - ~QUARTUS_CREATED_GND~I_combout $end
$var wire 1 . B~input_o $end
$var wire 1 / A~input_o $end
$var wire 1 0 C~input_o $end
$var wire 1 1 D~input_o $end
$var wire 1 2 inst8~0_combout $end
$upscope $end
$upscope $end
$enddefinitions $end
#0
$dumpvars
0!
0"
0#
0$
1%
x&
0'
1(
x)
1*
1+
1,
0-
0.
0/
00
01
12
$end
#1000
1!
1/
0&
#2000
1"
0!
1.
0/
1&
#3000
1!
1/
0&
#4000
1#
0"
0!
10
0.
0/
1&
#5000
1!
1/
0&
#6000
1"
0!
1.
0/
1&
#7000
1!
1/
0&
#8000
1$
0#
0"
0!
11
00
0.
0/
1&
#9000
1!
1/
0&
#10000
1"
0!
1.
0/
1&
#11000
1!
1/
0&
#12000
1#
0"
0!
10
0.
0/
1&
#13000
1!
1/
0&
#14000
1"
0!
1.
0/
1&
#15000
1!
1/
0&
02
0%
#16000
0$
0#
0"
0!
01
00
0.
0/
1&
12
1%
#17000
1!
1/
0&
#18000
1"
0!
1.
0/
1&
#19000
1!
1/
0&
#20000
1#
0"
0!
10
0.
0/
1&
#21000
1!
1/
0&
#22000
1"
0!
1.
0/
1&
#23000
1!
1/
0&
#24000
1$
0#
0"
0!
11
00
0.
0/
1&
#25000
1!
1/
0&
#26000
1"
0!
1.
0/
1&
#27000
1!
1/
0&
#28000
1#
0"
0!
10
0.
0/
1&
#29000
1!
1/
0&
#30000
1"
0!
1.
0/
1&
#31000
1!
1/
0&
02
0%
#32000
0$
0#
0"
0!
01
00
0.
0/
1&
12
1%
#33000
1!
1/
0&
#34000
1"
0!
1.
0/
1&
#35000
1!
1/
0&
#36000
1#
0"
0!
10
0.
0/
1&
#37000
1!
1/
0&
#38000
1"
0!
1.
0/
1&
#39000
1!
1/
0&
#40000
1$
0#
0"
0!
11
00
0.
0/
1&
#41000
1!
1/
0&
#42000
1"
0!
1.
0/
1&
#43000
1!
1/
0&
#44000
1#
0"
0!
10
0.
0/
1&
#45000
1!
1/
0&
#46000
1"
0!
1.
0/
1&
#47000
1!
1/
0&
02
0%
#48000
0$
0#
0"
0!
01
00
0.
0/
1&
12
1%
#49000
1!
1/
0&
#50000
1"
0!
1.
0/
1&
#51000
1!
1/
0&
#52000
1#
0"
0!
10
0.
0/
1&
#53000
1!
1/
0&
#54000
1"
0!
1.
0/
1&
#55000
1!
1/
0&
#56000
1$
0#
0"
0!
11
00
0.
0/
1&
#57000
1!
1/
0&
#58000
1"
0!
1.
0/
1&
#59000
1!
1/
0&
#60000
1#
0"
0!
10
0.
0/
1&
#61000
1!
1/
0&
#62000
1"
0!
1.
0/
1&
#63000
1!
1/
0&
02
0%
#64000
0$
0#
0"
0!
01
00
0.
0/
1&
12
1%
#65000
1!
1/
0&
#66000
1"
0!
1.
0/
1&
#67000
1!
1/
0&
#68000
1#
0"
0!
10
0.
0/
1&
#69000
1!
1/
0&
#70000
1"
0!
1.
0/
1&
#71000
1!
1/
0&
#72000
1$
0#
0"
0!
11
00
0.
0/
1&
#73000
1!
1/
0&
#74000
1"
0!
1.
0/
1&
#75000
1!
1/
0&
#76000
1#
0"
0!
10
0.
0/
1&
#77000
1!
1/
0&
#78000
1"
0!
1.
0/
1&
#79000
1!
1/
0&
02
0%
#80000
0$
0#
0"
0!
01
00
0.
0/
1&
12
1%
#81000
1!
1/
0&
#82000
1"
0!
1.
0/
1&
#83000
1!
1/
0&
#84000
1#
0"
0!
10
0.
0/
1&
#85000
1!
1/
0&
#86000
1"
0!
1.
0/
1&
#87000
1!
1/
0&
#88000
1$
0#
0"
0!
11
00
0.
0/
1&
#89000
1!
1/
0&
#90000
1"
0!
1.
0/
1&
#91000
1!
1/
0&
#92000
1#
0"
0!
10
0.
0/
1&
#93000
1!
1/
0&
#94000
1"
0!
1.
0/
1&
#95000
1!
1/
0&
02
0%
#96000
0$
0#
0"
0!
01
00
0.
0/
1&
12
1%
#97000
1!
1/
0&
#98000
1"
0!
1.
0/
1&
#99000
1!
1/
0&
#100000
1#
0"
0!
10
0.
0/
1&
#101000
1!
1/
0&
#102000
1"
0!
1.
0/
1&
#103000
1!
1/
0&
#104000
1$
0#
0"
0!
11
00
0.
0/
1&
#105000
1!
1/
0&
#106000
1"
0!
1.
0/
1&
#107000
1!
1/
0&
#108000
1#
0"
0!
10
0.
0/
1&
#109000
1!
1/
0&
#110000
1"
0!
1.
0/
1&
#111000
1!
1/
0&
02
0%
#112000
0$
0#
0"
0!
01
00
0.
0/
1&
12
1%
#113000
1!
1/
0&
#114000
1"
0!
1.
0/
1&
#115000
1!
1/
0&
#116000
1#
0"
0!
10
0.
0/
1&
#117000
1!
1/
0&
#118000
1"
0!
1.
0/
1&
#119000
1!
1/
0&
#120000
1$
0#
0"
0!
11
00
0.
0/
1&
#121000
1!
1/
0&
#122000
1"
0!
1.
0/
1&
#123000
1!
1/
0&
#124000
1#
0"
0!
10
0.
0/
1&
#125000
1!
1/
0&
#126000
1"
0!
1.
0/
1&
#127000
1!
1/
0&
02
0%
#128000
0$
0#
0"
0!
01
00
0.
0/
1&
12
1%
#129000
1!
1/
0&
#130000
1"
0!
1.
0/
1&
#131000
1!
1/
0&
#132000
1#
0"
0!
10
0.
0/
1&
#133000
1!
1/
0&
#134000
1"
0!
1.
0/
1&
#135000
1!
1/
0&
#136000
1$
0#
0"
0!
11
00
0.
0/
1&
#137000
1!
1/
0&
#138000
1"
0!
1.
0/
1&
#139000
1!
1/
0&
#140000
1#
0"
0!
10
0.
0/
1&
#141000
1!
1/
0&
#142000
1"
0!
1.
0/
1&
#143000
1!
1/
0&
02
0%
#144000
0$
0#
0"
0!
01
00
0.
0/
1&
12
1%
#145000
1!
1/
0&
#146000
1"
0!
1.
0/
1&
#147000
1!
1/
0&
#148000
1#
0"
0!
10
0.
0/
1&
#149000
1!
1/
0&
#150000
1"
0!
1.
0/
1&
#151000
1!
1/
0&
#152000
1$
0#
0"
0!
11
00
0.
0/
1&
#153000
1!
1/
0&
#154000
1"
0!
1.
0/
1&
#155000
1!
1/
0&
#156000
1#
0"
0!
10
0.
0/
1&
#157000
1!
1/
0&
#158000
1"
0!
1.
0/
1&
#159000
1!
1/
0&
02
0%
#160000
0$
0#
0"
0!
01
00
0.
0/
1&
12
1%
#161000
1!
1/
0&
#162000
1"
0!
1.
0/
1&
#163000
1!
1/
0&
#164000
1#
0"
0!
10
0.
0/
1&
#165000
1!
1/
0&
#166000
1"
0!
1.
0/
1&
#167000
1!
1/
0&
#168000
1$
0#
0"
0!
11
00
0.
0/
1&
#169000
1!
1/
0&
#170000
1"
0!
1.
0/
1&
#171000
1!
1/
0&
#172000
1#
0"
0!
10
0.
0/
1&
#173000
1!
1/
0&
#174000
1"
0!
1.
0/
1&
#175000
1!
1/
0&
02
0%
#176000
0$
0#
0"
0!
01
00
0.
0/
1&
12
1%
#177000
1!
1/
0&
#178000
1"
0!
1.
0/
1&
#179000
1!
1/
0&
#180000
1#
0"
0!
10
0.
0/
1&
#181000
1!
1/
0&
#182000
1"
0!
1.
0/
1&
#183000
1!
1/
0&
#184000
1$
0#
0"
0!
11
00
0.
0/
1&
#185000
1!
1/
0&
#186000
1"
0!
1.
0/
1&
#187000
1!
1/
0&
#188000
1#
0"
0!
10
0.
0/
1&
#189000
1!
1/
0&
#190000
1"
0!
1.
0/
1&
#191000
1!
1/
0&
02
0%
#192000
0$
0#
0"
0!
01
00
0.
0/
1&
12
1%
#193000
1!
1/
0&
#194000
1"
0!
1.
0/
1&
#195000
1!
1/
0&
#196000
1#
0"
0!
10
0.
0/
1&
#197000
1!
1/
0&
#198000
1"
0!
1.
0/
1&
#199000
1!
1/
0&
#200000
1$
0#
0"
0!
11
00
0.
0/
1&
#201000
1!
1/
0&
#202000
1"
0!
1.
0/
1&
#203000
1!
1/
0&
#204000
1#
0"
0!
10
0.
0/
1&
#205000
1!
1/
0&
#206000
1"
0!
1.
0/
1&
#207000
1!
1/
0&
02
0%
#208000
0$
0#
0"
0!
01
00
0.
0/
1&
12
1%
#209000
1!
1/
0&
#210000
1"
0!
1.
0/
1&
#211000
1!
1/
0&
#212000
1#
0"
0!
10
0.
0/
1&
#213000
1!
1/
0&
#214000
1"
0!
1.
0/
1&
#215000
1!
1/
0&
#216000
1$
0#
0"
0!
11
00
0.
0/
1&
#217000
1!
1/
0&
#218000
1"
0!
1.
0/
1&
#219000
1!
1/
0&
#220000
1#
0"
0!
10
0.
0/
1&
#221000
1!
1/
0&
#222000
1"
0!
1.
0/
1&
#223000
1!
1/
0&
02
0%
#224000
0$
0#
0"
0!
01
00
0.
0/
1&
12
1%
#225000
1!
1/
0&
#226000
1"
0!
1.
0/
1&
#227000
1!
1/
0&
#228000
1#
0"
0!
10
0.
0/
1&
#229000
1!
1/
0&
#230000
1"
0!
1.
0/
1&
#231000
1!
1/
0&
#232000
1$
0#
0"
0!
11
00
0.
0/
1&
#233000
1!
1/
0&
#234000
1"
0!
1.
0/
1&
#235000
1!
1/
0&
#236000
1#
0"
0!
10
0.
0/
1&
#237000
1!
1/
0&
#238000
1"
0!
1.
0/
1&
#239000
1!
1/
0&
02
0%
#240000
0$
0#
0"
0!
01
00
0.
0/
1&
12
1%
#241000
1!
1/
0&
#242000
1"
0!
1.
0/
1&
#243000
1!
1/
0&
#244000
1#
0"
0!
10
0.
0/
1&
#245000
1!
1/
0&
#246000
1"
0!
1.
0/
1&
#247000
1!
1/
0&
#248000
1$
0#
0"
0!
11
00
0.
0/
1&
#249000
1!
1/
0&
#250000
1"
0!
1.
0/
1&
#251000
1!
1/
0&
#252000
1#
0"
0!
10
0.
0/
1&
#253000
1!
1/
0&
#254000
1"
0!
1.
0/
1&
#255000
1!
1/
0&
02
0%
#256000
0$
0#
0"
0!
01
00
0.
0/
1&
12
1%
#257000
1!
1/
0&
#258000
1"
0!
1.
0/
1&
#259000
1!
1/
0&
#260000
1#
0"
0!
10
0.
0/
1&
#261000
1!
1/
0&
#262000
1"
0!
1.
0/
1&
#263000
1!
1/
0&
#264000
1$
0#
0"
0!
11
00
0.
0/
1&
#265000
1!
1/
0&
#266000
1"
0!
1.
0/
1&
#267000
1!
1/
0&
#268000
1#
0"
0!
10
0.
0/
1&
#269000
1!
1/
0&
#270000
1"
0!
1.
0/
1&
#271000
1!
1/
0&
02
0%
#272000
0$
0#
0"
0!
01
00
0.
0/
1&
12
1%
#273000
1!
1/
0&
#274000
1"
0!
1.
0/
1&
#275000
1!
1/
0&
#276000
1#
0"
0!
10
0.
0/
1&
#277000
1!
1/
0&
#278000
1"
0!
1.
0/
1&
#279000
1!
1/
0&
#280000
1$
0#
0"
0!
11
00
0.
0/
1&
#281000
1!
1/
0&
#282000
1"
0!
1.
0/
1&
#283000
1!
1/
0&
#284000
1#
0"
0!
10
0.
0/
1&
#285000
1!
1/
0&
#286000
1"
0!
1.
0/
1&
#287000
1!
1/
0&
02
0%
#288000
0$
0#
0"
0!
01
00
0.
0/
1&
12
1%
#289000
1!
1/
0&
#290000
1"
0!
1.
0/
1&
#291000
1!
1/
0&
#292000
1#
0"
0!
10
0.
0/
1&
#293000
1!
1/
0&
#294000
1"
0!
1.
0/
1&
#295000
1!
1/
0&
#296000
1$
0#
0"
0!
11
00
0.
0/
1&
#297000
1!
1/
0&
#298000
1"
0!
1.
0/
1&
#299000
1!
1/
0&
#300000
1#
0"
0!
10
0.
0/
1&
#301000
1!
1/
0&
#302000
1"
0!
1.
0/
1&
#303000
1!
1/
0&
02
0%
#304000
0$
0#
0"
0!
01
00
0.
0/
1&
12
1%
#305000
1!
1/
0&
#306000
1"
0!
1.
0/
1&
#307000
1!
1/
0&
#308000
1#
0"
0!
10
0.
0/
1&
#309000
1!
1/
0&
#310000
1"
0!
1.
0/
1&
#311000
1!
1/
0&
#312000
1$
0#
0"
0!
11
00
0.
0/
1&
#313000
1!
1/
0&
#314000
1"
0!
1.
0/
1&
#315000
1!
1/
0&
#316000
1#
0"
0!
10
0.
0/
1&
#317000
1!
1/
0&
#318000
1"
0!
1.
0/
1&
#319000
1!
1/
0&
02
0%
#320000
0$
0#
0"
0!
01
00
0.
0/
1&
12
1%
#321000
1!
1/
0&
#322000
1"
0!
1.
0/
1&
#323000
1!
1/
0&
#324000
1#
0"
0!
10
0.
0/
1&
#325000
1!
1/
0&
#326000
1"
0!
1.
0/
1&
#327000
1!
1/
0&
#328000
1$
0#
0"
0!
11
00
0.
0/
1&
#329000
1!
1/
0&
#330000
1"
0!
1.
0/
1&
#331000
1!
1/
0&
#332000
1#
0"
0!
10
0.
0/
1&
#333000
1!
1/
0&
#334000
1"
0!
1.
0/
1&
#335000
1!
1/
0&
02
0%
#336000
0$
0#
0"
0!
01
00
0.
0/
1&
12
1%
#337000
1!
1/
0&
#338000
1"
0!
1.
0/
1&
#339000
1!
1/
0&
#340000
1#
0"
0!
10
0.
0/
1&
#341000
1!
1/
0&
#342000
1"
0!
1.
0/
1&
#343000
1!
1/
0&
#344000
1$
0#
0"
0!
11
00
0.
0/
1&
#345000
1!
1/
0&
#346000
1"
0!
1.
0/
1&
#347000
1!
1/
0&
#348000
1#
0"
0!
10
0.
0/
1&
#349000
1!
1/
0&
#350000
1"
0!
1.
0/
1&
#351000
1!
1/
0&
02
0%
#352000
0$
0#
0"
0!
01
00
0.
0/
1&
12
1%
#353000
1!
1/
0&
#354000
1"
0!
1.
0/
1&
#355000
1!
1/
0&
#356000
1#
0"
0!
10
0.
0/
1&
#357000
1!
1/
0&
#358000
1"
0!
1.
0/
1&
#359000
1!
1/
0&
#360000
1$
0#
0"
0!
11
00
0.
0/
1&
#361000
1!
1/
0&
#362000
1"
0!
1.
0/
1&
#363000
1!
1/
0&
#364000
1#
0"
0!
10
0.
0/
1&
#365000
1!
1/
0&
#366000
1"
0!
1.
0/
1&
#367000
1!
1/
0&
02
0%
#368000
0$
0#
0"
0!
01
00
0.
0/
1&
12
1%
#369000
1!
1/
0&
#370000
1"
0!
1.
0/
1&
#371000
1!
1/
0&
#372000
1#
0"
0!
10
0.
0/
1&
#373000
1!
1/
0&
#374000
1"
0!
1.
0/
1&
#375000
1!
1/
0&
#376000
1$
0#
0"
0!
11
00
0.
0/
1&
#377000
1!
1/
0&
#378000
1"
0!
1.
0/
1&
#379000
1!
1/
0&
#380000
1#
0"
0!
10
0.
0/
1&
#381000
1!
1/
0&
#382000
1"
0!
1.
0/
1&
#383000
1!
1/
0&
02
0%
#384000
0$
0#
0"
0!
01
00
0.
0/
1&
12
1%
#385000
1!
1/
0&
#386000
1"
0!
1.
0/
1&
#387000
1!
1/
0&
#388000
1#
0"
0!
10
0.
0/
1&
#389000
1!
1/
0&
#390000
1"
0!
1.
0/
1&
#391000
1!
1/
0&
#392000
1$
0#
0"
0!
11
00
0.
0/
1&
#393000
1!
1/
0&
#394000
1"
0!
1.
0/
1&
#395000
1!
1/
0&
#396000
1#
0"
0!
10
0.
0/
1&
#397000
1!
1/
0&
#398000
1"
0!
1.
0/
1&
#399000
1!
1/
0&
02
0%
#400000
0$
0#
0"
0!
01
00
0.
0/
1&
12
1%
#401000
1!
1/
0&
#402000
1"
0!
1.
0/
1&
#403000
1!
1/
0&
#404000
1#
0"
0!
10
0.
0/
1&
#405000
1!
1/
0&
#406000
1"
0!
1.
0/
1&
#407000
1!
1/
0&
#408000
1$
0#
0"
0!
11
00
0.
0/
1&
#409000
1!
1/
0&
#410000
1"
0!
1.
0/
1&
#411000
1!
1/
0&
#412000
1#
0"
0!
10
0.
0/
1&
#413000
1!
1/
0&
#414000
1"
0!
1.
0/
1&
#415000
1!
1/
0&
02
0%
#416000
0$
0#
0"
0!
01
00
0.
0/
1&
12
1%
#417000
1!
1/
0&
#418000
1"
0!
1.
0/
1&
#419000
1!
1/
0&
#420000
1#
0"
0!
10
0.
0/
1&
#421000
1!
1/
0&
#422000
1"
0!
1.
0/
1&
#423000
1!
1/
0&
#424000
1$
0#
0"
0!
11
00
0.
0/
1&
#425000
1!
1/
0&
#426000
1"
0!
1.
0/
1&
#427000
1!
1/
0&
#428000
1#
0"
0!
10
0.
0/
1&
#429000
1!
1/
0&
#430000
1"
0!
1.
0/
1&
#431000
1!
1/
0&
02
0%
#432000
0$
0#
0"
0!
01
00
0.
0/
1&
12
1%
#433000
1!
1/
0&
#434000
1"
0!
1.
0/
1&
#435000
1!
1/
0&
#436000
1#
0"
0!
10
0.
0/
1&
#437000
1!
1/
0&
#438000
1"
0!
1.
0/
1&
#439000
1!
1/
0&
#440000
1$
0#
0"
0!
11
00
0.
0/
1&
#441000
1!
1/
0&
#442000
1"
0!
1.
0/
1&
#443000
1!
1/
0&
#444000
1#
0"
0!
10
0.
0/
1&
#445000
1!
1/
0&
#446000
1"
0!
1.
0/
1&
#447000
1!
1/
0&
02
0%
#448000
0$
0#
0"
0!
01
00
0.
0/
1&
12
1%
#449000
1!
1/
0&
#450000
1"
0!
1.
0/
1&
#451000
1!
1/
0&
#452000
1#
0"
0!
10
0.
0/
1&
#453000
1!
1/
0&
#454000
1"
0!
1.
0/
1&
#455000
1!
1/
0&
#456000
1$
0#
0"
0!
11
00
0.
0/
1&
#457000
1!
1/
0&
#458000
1"
0!
1.
0/
1&
#459000
1!
1/
0&
#460000
1#
0"
0!
10
0.
0/
1&
#461000
1!
1/
0&
#462000
1"
0!
1.
0/
1&
#463000
1!
1/
0&
02
0%
#464000
0$
0#
0"
0!
01
00
0.
0/
1&
12
1%
#465000
1!
1/
0&
#466000
1"
0!
1.
0/
1&
#467000
1!
1/
0&
#468000
1#
0"
0!
10
0.
0/
1&
#469000
1!
1/
0&
#470000
1"
0!
1.
0/
1&
#471000
1!
1/
0&
#472000
1$
0#
0"
0!
11
00
0.
0/
1&
#473000
1!
1/
0&
#474000
1"
0!
1.
0/
1&
#475000
1!
1/
0&
#476000
1#
0"
0!
10
0.
0/
1&
#477000
1!
1/
0&
#478000
1"
0!
1.
0/
1&
#479000
1!
1/
0&
02
0%
#480000
0$
0#
0"
0!
01
00
0.
0/
1&
12
1%
#481000
1!
1/
0&
#482000
1"
0!
1.
0/
1&
#483000
1!
1/
0&
#484000
1#
0"
0!
10
0.
0/
1&
#485000
1!
1/
0&
#486000
1"
0!
1.
0/
1&
#487000
1!
1/
0&
#488000
1$
0#
0"
0!
11
00
0.
0/
1&
#489000
1!
1/
0&
#490000
1"
0!
1.
0/
1&
#491000
1!
1/
0&
#492000
1#
0"
0!
10
0.
0/
1&
#493000
1!
1/
0&
#494000
1"
0!
1.
0/
1&
#495000
1!
1/
0&
02
0%
#496000
0$
0#
0"
0!
01
00
0.
0/
1&
12
1%
#497000
1!
1/
0&
#498000
1"
0!
1.
0/
1&
#499000
1!
1/
0&
#500000
1#
0"
0!
10
0.
0/
1&
#501000
1!
1/
0&
#502000
1"
0!
1.
0/
1&
#503000
1!
1/
0&
#504000
1$
0#
0"
0!
11
00
0.
0/
1&
#505000
1!
1/
0&
#506000
1"
0!
1.
0/
1&
#507000
1!
1/
0&
#508000
1#
0"
0!
10
0.
0/
1&
#509000
1!
1/
0&
#510000
1"
0!
1.
0/
1&
#511000
1!
1/
0&
02
0%
#512000
0$
0#
0"
0!
01
00
0.
0/
1&
12
1%
#513000
1!
1/
0&
#514000
1"
0!
1.
0/
1&
#515000
1!
1/
0&
#516000
1#
0"
0!
10
0.
0/
1&
#517000
1!
1/
0&
#518000
1"
0!
1.
0/
1&
#519000
1!
1/
0&
#520000
1$
0#
0"
0!
11
00
0.
0/
1&
#521000
1!
1/
0&
#522000
1"
0!
1.
0/
1&
#523000
1!
1/
0&
#524000
1#
0"
0!
10
0.
0/
1&
#525000
1!
1/
0&
#526000
1"
0!
1.
0/
1&
#527000
1!
1/
0&
02
0%
#528000
0$
0#
0"
0!
01
00
0.
0/
1&
12
1%
#529000
1!
1/
0&
#530000
1"
0!
1.
0/
1&
#531000
1!
1/
0&
#532000
1#
0"
0!
10
0.
0/
1&
#533000
1!
1/
0&
#534000
1"
0!
1.
0/
1&
#535000
1!
1/
0&
#536000
1$
0#
0"
0!
11
00
0.
0/
1&
#537000
1!
1/
0&
#538000
1"
0!
1.
0/
1&
#539000
1!
1/
0&
#540000
1#
0"
0!
10
0.
0/
1&
#541000
1!
1/
0&
#542000
1"
0!
1.
0/
1&
#543000
1!
1/
0&
02
0%
#544000
0$
0#
0"
0!
01
00
0.
0/
1&
12
1%
#545000
1!
1/
0&
#546000
1"
0!
1.
0/
1&
#547000
1!
1/
0&
#548000
1#
0"
0!
10
0.
0/
1&
#549000
1!
1/
0&
#550000
1"
0!
1.
0/
1&
#551000
1!
1/
0&
#552000
1$
0#
0"
0!
11
00
0.
0/
1&
#553000
1!
1/
0&
#554000
1"
0!
1.
0/
1&
#555000
1!
1/
0&
#556000
1#
0"
0!
10
0.
0/
1&
#557000
1!
1/
0&
#558000
1"
0!
1.
0/
1&
#559000
1!
1/
0&
02
0%
#560000
0$
0#
0"
0!
01
00
0.
0/
1&
12
1%
#561000
1!
1/
0&
#562000
1"
0!
1.
0/
1&
#563000
1!
1/
0&
#564000
1#
0"
0!
10
0.
0/
1&
#565000
1!
1/
0&
#566000
1"
0!
1.
0/
1&
#567000
1!
1/
0&
#568000
1$
0#
0"
0!
11
00
0.
0/
1&
#569000
1!
1/
0&
#570000
1"
0!
1.
0/
1&
#571000
1!
1/
0&
#572000
1#
0"
0!
10
0.
0/
1&
#573000
1!
1/
0&
#574000
1"
0!
1.
0/
1&
#575000
1!
1/
0&
02
0%
#576000
0$
0#
0"
0!
01
00
0.
0/
1&
12
1%
#577000
1!
1/
0&
#578000
1"
0!
1.
0/
1&
#579000
1!
1/
0&
#580000
1#
0"
0!
10
0.
0/
1&
#581000
1!
1/
0&
#582000
1"
0!
1.
0/
1&
#583000
1!
1/
0&
#584000
1$
0#
0"
0!
11
00
0.
0/
1&
#585000
1!
1/
0&
#586000
1"
0!
1.
0/
1&
#587000
1!
1/
0&
#588000
1#
0"
0!
10
0.
0/
1&
#589000
1!
1/
0&
#590000
1"
0!
1.
0/
1&
#591000
1!
1/
0&
02
0%
#592000
0$
0#
0"
0!
01
00
0.
0/
1&
12
1%
#593000
1!
1/
0&
#594000
1"
0!
1.
0/
1&
#595000
1!
1/
0&
#596000
1#
0"
0!
10
0.
0/
1&
#597000
1!
1/
0&
#598000
1"
0!
1.
0/
1&
#599000
1!
1/
0&
#600000
1$
0#
0"
0!
11
00
0.
0/
1&
#601000
1!
1/
0&
#602000
1"
0!
1.
0/
1&
#603000
1!
1/
0&
#604000
1#
0"
0!
10
0.
0/
1&
#605000
1!
1/
0&
#606000
1"
0!
1.
0/
1&
#607000
1!
1/
0&
02
0%
#608000
0$
0#
0"
0!
01
00
0.
0/
1&
12
1%
#609000
1!
1/
0&
#610000
1"
0!
1.
0/
1&
#611000
1!
1/
0&
#612000
1#
0"
0!
10
0.
0/
1&
#613000
1!
1/
0&
#614000
1"
0!
1.
0/
1&
#615000
1!
1/
0&
#616000
1$
0#
0"
0!
11
00
0.
0/
1&
#617000
1!
1/
0&
#618000
1"
0!
1.
0/
1&
#619000
1!
1/
0&
#620000
1#
0"
0!
10
0.
0/
1&
#621000
1!
1/
0&
#622000
1"
0!
1.
0/
1&
#623000
1!
1/
0&
02
0%
#624000
0$
0#
0"
0!
01
00
0.
0/
1&
12
1%
#625000
1!
1/
0&
#626000
1"
0!
1.
0/
1&
#627000
1!
1/
0&
#628000
1#
0"
0!
10
0.
0/
1&
#629000
1!
1/
0&
#630000
1"
0!
1.
0/
1&
#631000
1!
1/
0&
#632000
1$
0#
0"
0!
11
00
0.
0/
1&
#633000
1!
1/
0&
#634000
1"
0!
1.
0/
1&
#635000
1!
1/
0&
#636000
1#
0"
0!
10
0.
0/
1&
#637000
1!
1/
0&
#638000
1"
0!
1.
0/
1&
#639000
1!
1/
0&
02
0%
#640000
0$
0#
0"
0!
01
00
0.
0/
1&
12
1%
#641000
1!
1/
0&
#642000
1"
0!
1.
0/
1&
#643000
1!
1/
0&
#644000
1#
0"
0!
10
0.
0/
1&
#645000
1!
1/
0&
#646000
1"
0!
1.
0/
1&
#647000
1!
1/
0&
#648000
1$
0#
0"
0!
11
00
0.
0/
1&
#649000
1!
1/
0&
#650000
1"
0!
1.
0/
1&
#651000
1!
1/
0&
#652000
1#
0"
0!
10
0.
0/
1&
#653000
1!
1/
0&
#654000
1"
0!
1.
0/
1&
#655000
1!
1/
0&
02
0%
#656000
0$
0#
0"
0!
01
00
0.
0/
1&
12
1%
#657000
1!
1/
0&
#658000
1"
0!
1.
0/
1&
#659000
1!
1/
0&
#660000
1#
0"
0!
10
0.
0/
1&
#661000
1!
1/
0&
#662000
1"
0!
1.
0/
1&
#663000
1!
1/
0&
#664000
1$
0#
0"
0!
11
00
0.
0/
1&
#665000
1!
1/
0&
#666000
1"
0!
1.
0/
1&
#667000
1!
1/
0&
#668000
1#
0"
0!
10
0.
0/
1&
#669000
1!
1/
0&
#670000
1"
0!
1.
0/
1&
#671000
1!
1/
0&
02
0%
#672000
0$
0#
0"
0!
01
00
0.
0/
1&
12
1%
#673000
1!
1/
0&
#674000
1"
0!
1.
0/
1&
#675000
1!
1/
0&
#676000
1#
0"
0!
10
0.
0/
1&
#677000
1!
1/
0&
#678000
1"
0!
1.
0/
1&
#679000
1!
1/
0&
#680000
1$
0#
0"
0!
11
00
0.
0/
1&
#681000
1!
1/
0&
#682000
1"
0!
1.
0/
1&
#683000
1!
1/
0&
#684000
1#
0"
0!
10
0.
0/
1&
#685000
1!
1/
0&
#686000
1"
0!
1.
0/
1&
#687000
1!
1/
0&
02
0%
#688000
0$
0#
0"
0!
01
00
0.
0/
1&
12
1%
#689000
1!
1/
0&
#690000
1"
0!
1.
0/
1&
#691000
1!
1/
0&
#692000
1#
0"
0!
10
0.
0/
1&
#693000
1!
1/
0&
#694000
1"
0!
1.
0/
1&
#695000
1!
1/
0&
#696000
1$
0#
0"
0!
11
00
0.
0/
1&
#697000
1!
1/
0&
#698000
1"
0!
1.
0/
1&
#699000
1!
1/
0&
#700000
1#
0"
0!
10
0.
0/
1&
#701000
1!
1/
0&
#702000
1"
0!
1.
0/
1&
#703000
1!
1/
0&
02
0%
#704000
0$
0#
0"
0!
01
00
0.
0/
1&
12
1%
#705000
1!
1/
0&
#706000
1"
0!
1.
0/
1&
#707000
1!
1/
0&
#708000
1#
0"
0!
10
0.
0/
1&
#709000
1!
1/
0&
#710000
1"
0!
1.
0/
1&
#711000
1!
1/
0&
#712000
1$
0#
0"
0!
11
00
0.
0/
1&
#713000
1!
1/
0&
#714000
1"
0!
1.
0/
1&
#715000
1!
1/
0&
#716000
1#
0"
0!
10
0.
0/
1&
#717000
1!
1/
0&
#718000
1"
0!
1.
0/
1&
#719000
1!
1/
0&
02
0%
#720000
0$
0#
0"
0!
01
00
0.
0/
1&
12
1%
#721000
1!
1/
0&
#722000
1"
0!
1.
0/
1&
#723000
1!
1/
0&
#724000
1#
0"
0!
10
0.
0/
1&
#725000
1!
1/
0&
#726000
1"
0!
1.
0/
1&
#727000
1!
1/
0&
#728000
1$
0#
0"
0!
11
00
0.
0/
1&
#729000
1!
1/
0&
#730000
1"
0!
1.
0/
1&
#731000
1!
1/
0&
#732000
1#
0"
0!
10
0.
0/
1&
#733000
1!
1/
0&
#734000
1"
0!
1.
0/
1&
#735000
1!
1/
0&
02
0%
#736000
0$
0#
0"
0!
01
00
0.
0/
1&
12
1%
#737000
1!
1/
0&
#738000
1"
0!
1.
0/
1&
#739000
1!
1/
0&
#740000
1#
0"
0!
10
0.
0/
1&
#741000
1!
1/
0&
#742000
1"
0!
1.
0/
1&
#743000
1!
1/
0&
#744000
1$
0#
0"
0!
11
00
0.
0/
1&
#745000
1!
1/
0&
#746000
1"
0!
1.
0/
1&
#747000
1!
1/
0&
#748000
1#
0"
0!
10
0.
0/
1&
#749000
1!
1/
0&
#750000
1"
0!
1.
0/
1&
#751000
1!
1/
0&
02
0%
#752000
0$
0#
0"
0!
01
00
0.
0/
1&
12
1%
#753000
1!
1/
0&
#754000
1"
0!
1.
0/
1&
#755000
1!
1/
0&
#756000
1#
0"
0!
10
0.
0/
1&
#757000
1!
1/
0&
#758000
1"
0!
1.
0/
1&
#759000
1!
1/
0&
#760000
1$
0#
0"
0!
11
00
0.
0/
1&
#761000
1!
1/
0&
#762000
1"
0!
1.
0/
1&
#763000
1!
1/
0&
#764000
1#
0"
0!
10
0.
0/
1&
#765000
1!
1/
0&
#766000
1"
0!
1.
0/
1&
#767000
1!
1/
0&
02
0%
#768000
0$
0#
0"
0!
01
00
0.
0/
1&
12
1%
#769000
1!
1/
0&
#770000
1"
0!
1.
0/
1&
#771000
1!
1/
0&
#772000
1#
0"
0!
10
0.
0/
1&
#773000
1!
1/
0&
#774000
1"
0!
1.
0/
1&
#775000
1!
1/
0&
#776000
1$
0#
0"
0!
11
00
0.
0/
1&
#777000
1!
1/
0&
#778000
1"
0!
1.
0/
1&
#779000
1!
1/
0&
#780000
1#
0"
0!
10
0.
0/
1&
#781000
1!
1/
0&
